location,type
"1.348705, 103.946654",bike
"1.375047, 103.941247",truck
"1.375734, 103.957211",bike
"1.374704, 103.912751",truck
"1.372301, 103.900477",bike
"1.379681, 103.920647",truck
"1.379681, 103.920647",bike
"1.316784, 103.945195",truck
"1.320045, 103.914210",bike
"1.315240, 103.906142",truck
"1.331028, 103.916098",bike
"1.350249, 103.926141",truck
"1.328454, 103.950173",bike
"1.313352, 103.874814",truck
"1.343556, 103.852498",bike
"1.319015, 103.843915",truck
"1.302025, 103.837392",bike
"1.281860, 103.834988",truck
"1.302712, 103.771216",bike
"1.319595, 103.843080",truck